^C:\USERS\RICHARD\DESKTOP\BME\SEM2\PROG2\AUTORECHNUNGSLEGUNG\AUTORECHNUNGSLEGUNG\AUTO.CPP|C:\USERS\RICHARD\DESKTOP\BME\SEM2\PROG2\AUTORECHNUNGSLEGUNG\AUTORECHNUNGSLEGUNG\AUTOHAENDLER.CPP|C:\USERS\RICHARD\DESKTOP\BME\SEM2\PROG2\AUTORECHNUNGSLEGUNG\AUTORECHNUNGSLEGUNG\BAUTEIL.CPP|C:\USERS\RICHARD\DESKTOP\BME\SEM2\PROG2\AUTORECHNUNGSLEGUNG\AUTORECHNUNGSLEGUNG\SCHNITTSTELLE.CPP
C:\USERS\RICHARD\DESKTOP\BME\SEM2\PROG2\AUTORECHNUNGSLEGUNG\AUTORECHNUNGSLEGUNG\DEBUG\VC120.PDB
C:\USERS\RICHARD\DESKTOP\BME\SEM2\PROG2\AUTORECHNUNGSLEGUNG\AUTORECHNUNGSLEGUNG\DEBUG\VC120.IDB
C:\USERS\RICHARD\DESKTOP\BME\SEM2\PROG2\AUTORECHNUNGSLEGUNG\AUTORECHNUNGSLEGUNG\DEBUG\AUTOHAENDLER.OBJ
C:\USERS\RICHARD\DESKTOP\BME\SEM2\PROG2\AUTORECHNUNGSLEGUNG\AUTORECHNUNGSLEGUNG\DEBUG\BAUTEIL.OBJ
C:\USERS\RICHARD\DESKTOP\BME\SEM2\PROG2\AUTORECHNUNGSLEGUNG\AUTORECHNUNGSLEGUNG\DEBUG\SCHNITTSTELLE.OBJ
C:\USERS\RICHARD\DESKTOP\BME\SEM2\PROG2\AUTORECHNUNGSLEGUNG\AUTORECHNUNGSLEGUNG\DEBUG\AUTO.OBJ
^C:\USERS\RICHARD\DESKTOP\BME\SEM2\PROG2\AUTORECHNUNGSLEGUNG\AUTORECHNUNGSLEGUNG\AUTO.CPP
C:\USERS\RICHARD\DESKTOP\BME\SEM2\PROG2\AUTORECHNUNGSLEGUNG\AUTORECHNUNGSLEGUNG\DEBUG\VC120.PDB
C:\USERS\RICHARD\DESKTOP\BME\SEM2\PROG2\AUTORECHNUNGSLEGUNG\AUTORECHNUNGSLEGUNG\DEBUG\VC120.IDB
^C:\USERS\RICHARD\DESKTOP\BME\SEM2\PROG2\AUTORECHNUNGSLEGUNG\AUTORECHNUNGSLEGUNG\AUTOHAENDLER.CPP
C:\USERS\RICHARD\DESKTOP\BME\SEM2\PROG2\AUTORECHNUNGSLEGUNG\AUTORECHNUNGSLEGUNG\DEBUG\VC120.PDB
C:\USERS\RICHARD\DESKTOP\BME\SEM2\PROG2\AUTORECHNUNGSLEGUNG\AUTORECHNUNGSLEGUNG\DEBUG\VC120.IDB
C:\USERS\RICHARD\DESKTOP\BME\SEM2\PROG2\AUTORECHNUNGSLEGUNG\AUTORECHNUNGSLEGUNG\DEBUG\AUTOHAENDLER.OBJ
^C:\USERS\RICHARD\DESKTOP\BME\SEM2\PROG2\AUTORECHNUNGSLEGUNG\AUTORECHNUNGSLEGUNG\BAUTEIL.CPP
C:\USERS\RICHARD\DESKTOP\BME\SEM2\PROG2\AUTORECHNUNGSLEGUNG\AUTORECHNUNGSLEGUNG\DEBUG\VC120.PDB
C:\USERS\RICHARD\DESKTOP\BME\SEM2\PROG2\AUTORECHNUNGSLEGUNG\AUTORECHNUNGSLEGUNG\DEBUG\VC120.IDB
^C:\USERS\RICHARD\DESKTOP\BME\SEM2\PROG2\AUTORECHNUNGSLEGUNG\AUTORECHNUNGSLEGUNG\SCHNITTSTELLE.CPP
C:\USERS\RICHARD\DESKTOP\BME\SEM2\PROG2\AUTORECHNUNGSLEGUNG\AUTORECHNUNGSLEGUNG\DEBUG\VC120.PDB
C:\USERS\RICHARD\DESKTOP\BME\SEM2\PROG2\AUTORECHNUNGSLEGUNG\AUTORECHNUNGSLEGUNG\DEBUG\VC120.IDB
C:\USERS\RICHARD\DESKTOP\BME\SEM2\PROG2\AUTORECHNUNGSLEGUNG\AUTORECHNUNGSLEGUNG\DEBUG\SCHNITTSTELLE.OBJ
^C:\USERS\RICHARD\DESKTOP\BME\SEM2\PROG2\AUTORECHNUNGSLEGUNG\AUTORECHNUNGSLEGUNG\AUTOHAENDLER.CPP|C:\USERS\RICHARD\DESKTOP\BME\SEM2\PROG2\AUTORECHNUNGSLEGUNG\AUTORECHNUNGSLEGUNG\SCHNITTSTELLE.CPP
C:\USERS\RICHARD\DESKTOP\BME\SEM2\PROG2\AUTORECHNUNGSLEGUNG\AUTORECHNUNGSLEGUNG\DEBUG\VC120.PDB
C:\USERS\RICHARD\DESKTOP\BME\SEM2\PROG2\AUTORECHNUNGSLEGUNG\AUTORECHNUNGSLEGUNG\DEBUG\VC120.IDB
C:\USERS\RICHARD\DESKTOP\BME\SEM2\PROG2\AUTORECHNUNGSLEGUNG\AUTORECHNUNGSLEGUNG\DEBUG\SCHNITTSTELLE.OBJ
C:\USERS\RICHARD\DESKTOP\BME\SEM2\PROG2\AUTORECHNUNGSLEGUNG\AUTORECHNUNGSLEGUNG\DEBUG\AUTOHAENDLER.OBJ
^C:\USERS\RICHARD\DESKTOP\BME\SEM2\PROG2\AUTORECHNUNGSLEGUNG\AUTORECHNUNGSLEGUNG\AUTO.CPP|C:\USERS\RICHARD\DESKTOP\BME\SEM2\PROG2\AUTORECHNUNGSLEGUNG\AUTORECHNUNGSLEGUNG\BAUTEIL.CPP
C:\USERS\RICHARD\DESKTOP\BME\SEM2\PROG2\AUTORECHNUNGSLEGUNG\AUTORECHNUNGSLEGUNG\DEBUG\VC120.PDB
C:\USERS\RICHARD\DESKTOP\BME\SEM2\PROG2\AUTORECHNUNGSLEGUNG\AUTORECHNUNGSLEGUNG\DEBUG\VC120.IDB
C:\USERS\RICHARD\DESKTOP\BME\SEM2\PROG2\AUTORECHNUNGSLEGUNG\AUTORECHNUNGSLEGUNG\DEBUG\AUTO.OBJ
C:\USERS\RICHARD\DESKTOP\BME\SEM2\PROG2\AUTORECHNUNGSLEGUNG\AUTORECHNUNGSLEGUNG\DEBUG\BAUTEIL.OBJ
^C:\USERS\RICHARD\DESKTOP\BME\SEM2\PROG2\AUTORECHNUNGSLEGUNG\AUTORECHNUNGSLEGUNG\AUTO.CPP|C:\USERS\RICHARD\DESKTOP\BME\SEM2\PROG2\AUTORECHNUNGSLEGUNG\AUTORECHNUNGSLEGUNG\AUTOHAENDLER.CPP|C:\USERS\RICHARD\DESKTOP\BME\SEM2\PROG2\AUTORECHNUNGSLEGUNG\AUTORECHNUNGSLEGUNG\SCHNITTSTELLE.CPP
C:\USERS\RICHARD\DESKTOP\BME\SEM2\PROG2\AUTORECHNUNGSLEGUNG\AUTORECHNUNGSLEGUNG\DEBUG\VC120.PDB
C:\USERS\RICHARD\DESKTOP\BME\SEM2\PROG2\AUTORECHNUNGSLEGUNG\AUTORECHNUNGSLEGUNG\DEBUG\VC120.IDB
C:\USERS\RICHARD\DESKTOP\BME\SEM2\PROG2\AUTORECHNUNGSLEGUNG\AUTORECHNUNGSLEGUNG\DEBUG\AUTO.OBJ
C:\USERS\RICHARD\DESKTOP\BME\SEM2\PROG2\AUTORECHNUNGSLEGUNG\AUTORECHNUNGSLEGUNG\DEBUG\SCHNITTSTELLE.OBJ
C:\USERS\RICHARD\DESKTOP\BME\SEM2\PROG2\AUTORECHNUNGSLEGUNG\AUTORECHNUNGSLEGUNG\DEBUG\AUTOHAENDLER.OBJ
^C:\USERS\RICHARD\DESKTOP\BME\SEM2\PROG2\AUTORECHNUNGSLEGUNG\AUTORECHNUNGSLEGUNG\AUTO.CPP|C:\USERS\RICHARD\DESKTOP\BME\SEM2\PROG2\AUTORECHNUNGSLEGUNG\AUTORECHNUNGSLEGUNG\AUTOHAENDLER.CPP|C:\USERS\RICHARD\DESKTOP\BME\SEM2\PROG2\AUTORECHNUNGSLEGUNG\AUTORECHNUNGSLEGUNG\BAUTEIL.CPP
C:\USERS\RICHARD\DESKTOP\BME\SEM2\PROG2\AUTORECHNUNGSLEGUNG\AUTORECHNUNGSLEGUNG\DEBUG\VC120.PDB
C:\USERS\RICHARD\DESKTOP\BME\SEM2\PROG2\AUTORECHNUNGSLEGUNG\AUTORECHNUNGSLEGUNG\DEBUG\VC120.IDB
C:\USERS\RICHARD\DESKTOP\BME\SEM2\PROG2\AUTORECHNUNGSLEGUNG\AUTORECHNUNGSLEGUNG\DEBUG\AUTO.OBJ
C:\USERS\RICHARD\DESKTOP\BME\SEM2\PROG2\AUTORECHNUNGSLEGUNG\AUTORECHNUNGSLEGUNG\DEBUG\AUTOHAENDLER.OBJ
C:\USERS\RICHARD\DESKTOP\BME\SEM2\PROG2\AUTORECHNUNGSLEGUNG\AUTORECHNUNGSLEGUNG\DEBUG\BAUTEIL.OBJ
^C:\USERS\RICHARD\DESKTOP\BME\SEM2\PROG2\AUTORECHNUNGSLEGUNG\AUTORECHNUNGSLEGUNG\AUTOHAENDLER.CPP|C:\USERS\RICHARD\DESKTOP\BME\SEM2\PROG2\AUTORECHNUNGSLEGUNG\AUTORECHNUNGSLEGUNG\BAUTEIL.CPP
C:\USERS\RICHARD\DESKTOP\BME\SEM2\PROG2\AUTORECHNUNGSLEGUNG\AUTORECHNUNGSLEGUNG\DEBUG\VC120.PDB
C:\USERS\RICHARD\DESKTOP\BME\SEM2\PROG2\AUTORECHNUNGSLEGUNG\AUTORECHNUNGSLEGUNG\DEBUG\VC120.IDB
C:\USERS\RICHARD\DESKTOP\BME\SEM2\PROG2\AUTORECHNUNGSLEGUNG\AUTORECHNUNGSLEGUNG\DEBUG\AUTOHAENDLER.OBJ
C:\USERS\RICHARD\DESKTOP\BME\SEM2\PROG2\AUTORECHNUNGSLEGUNG\AUTORECHNUNGSLEGUNG\DEBUG\BAUTEIL.OBJ
^C:\USERS\RICHARD\DESKTOP\BME\SEM2\PROG2\AUTORECHNUNGSLEGUNG\AUTORECHNUNGSLEGUNG\AUTO.CPP|C:\USERS\RICHARD\DESKTOP\BME\SEM2\PROG2\AUTORECHNUNGSLEGUNG\AUTORECHNUNGSLEGUNG\AUTOHAENDLER.CPP
C:\USERS\RICHARD\DESKTOP\BME\SEM2\PROG2\AUTORECHNUNGSLEGUNG\AUTORECHNUNGSLEGUNG\DEBUG\VC120.PDB
C:\USERS\RICHARD\DESKTOP\BME\SEM2\PROG2\AUTORECHNUNGSLEGUNG\AUTORECHNUNGSLEGUNG\DEBUG\VC120.IDB
C:\USERS\RICHARD\DESKTOP\BME\SEM2\PROG2\AUTORECHNUNGSLEGUNG\AUTORECHNUNGSLEGUNG\DEBUG\AUTO.OBJ
C:\USERS\RICHARD\DESKTOP\BME\SEM2\PROG2\AUTORECHNUNGSLEGUNG\AUTORECHNUNGSLEGUNG\DEBUG\AUTOHAENDLER.OBJ
